testdata/SDS5034X_CSV_C1_5.csv

Record Length,Analog:10000
Sample Interval,1.000000E-06
Vertical Units,V,
Vertical Scale,+5.000000E-01
Vertical Offset,-4.166667E-02
Horizontal Units,s
Horizontal Scale,+1.000000E-03
Model,SDS5034X
Serial Number,SDS5XC0Q900282
Software Version,6.7.0.0.9.9R8
Source,CH1
Second,Value
+0.0000000000E+00,-2.083333E-01
+1.0000000000E-06,-2.083333E-01
+2.0000000000E-06,-2.083333E-01
+3.0000000000E-06,-2.250000E-01
+4.0000000000E-06,-2.250000E-01
+5.0000000000E-06,-2.416667E-01
+6.0000000000E-06,-2.416667E-01
+7.0000000000E-06,-2.583334E-01
+8.0000000000E-06,-2.750000E-01
+9.0000000000E-06,-2.916667E-01
+1.0000000000E-05,-3.083334E-01
+1.1000000000E-05,-3.250000E-01
+1.2000000000E-05,-3.416667E-01
+1.3000000000E-05,-3.583334E-01
+1.4000000000E-05,-3.916667E-01
+1.5000000000E-05,-4.250000E-01
+1.6000000000E-05,-4.416667E-01
+1.7000000000E-05,-4.750001E-01
+1.8000000000E-05,-5.083333E-01
+1.9000000000E-05,-5.416667E-01
+2.0000000000E-05,-5.750000E-01
+2.1000000000E-05,-6.083333E-01
+2.2000000000E-05,-6.416667E-01
+2.3000000000E-05,-6.750000E-01
+2.4000000000E-05,-7.250000E-01
+2.5000000000E-05,-7.583334E-01
+2.6000000000E-05,-7.916667E-01
+2.7000000000E-05,-8.416667E-01
+2.8000000000E-05,-8.750000E-01
+2.9000000000E-05,-9.083334E-01
+3.0000000000E-05,-9.583333E-01
+3.1000000000E-05,-9.916667E-01
+3.2000000000E-05,-1.025000E+00
+3.3000000000E-05,-1.058333E+00
+3.4000000000E-05,-1.091667E+00
+3.5000000000E-05,-1.125000E+00
+3.6000000000E-05,-1.158333E+00
+3.7000000000E-05,-1.175000E+00
+3.8000000000E-05,-1.208333E+00
+3.9000000000E-05,-1.225000E+00
+4.0000000000E-05,-1.241667E+00
+4.1000000000E-05,-1.258333E+00
+4.2000000000E-05,-1.258333E+00
+4.3000000000E-05,-1.258333E+00
+4.4000000000E-05,-1.258333E+00
+4.5000000000E-05,-1.241667E+00
+4.6000000000E-05,-1.225000E+00
+4.7000000000E-05,-1.208333E+00
+4.8000000000E-05,-1.175000E+00
+4.9000000000E-05,-1.125000E+00
+5.0000000000E-05,-1.091667E+00
+5.1000000000E-05,-1.025000E+00
+5.2000000000E-05,-9.750001E-01
+5.3000000000E-05,-9.083334E-01
+5.4000000000E-05,-8.250000E-01
+5.5000000000E-05,-7.416667E-01
+5.6000000000E-05,-6.583334E-01
+5.7000000000E-05,-5.583333E-01
+5.8000000000E-05,-4.583333E-01
+5.9000000000E-05,-3.416667E-01
+6.0000000000E-05,-2.250000E-01
+6.1000000000E-05,-1.250000E-01
+6.2000000000E-05,+8.333333E-03
+6.3000000000E-05,+1.250000E-01
+6.4000000000E-05,+2.416667E-01
+6.5000000000E-05,+3.750000E-01
+6.6000000000E-05,+4.916667E-01
+6.7000000000E-05,+6.083334E-01
+6.8000000000E-05,+7.250001E-01
+6.9000000000E-05,+8.250000E-01
+7.0000000000E-05,+9.250001E-01
+7.1000000000E-05,+1.008333E+00
+7.2000000000E-05,+1.091667E+00
+7.3000000000E-05,+1.141667E+00
+7.4000000000E-05,+1.208333E+00
+7.5000000000E-05,+1.225000E+00
+7.6000000000E-05,+1.241667E+00
+7.7000000000E-05,+1.241667E+00
+7.8000000000E-05,+1.225000E+00
+7.9000000000E-05,+1.175000E+00
+8.0000000000E-05,+1.141667E+00
+8.1000000000E-05,+1.058333E+00
+8.2000000000E-05,+9.750001E-01
+8.3000000000E-05,+8.583334E-01
+8.4000000000E-05,+7.250001E-01
+8.5000000000E-05,+5.916667E-01
+8.6000000000E-05,+4.250000E-01
+8.7000000000E-05,+2.750000E-01
+8.8000000000E-05,+9.166667E-02
+8.9000000000E-05,-7.500000E-02
+9.0000000000E-05,-2.416667E-01
+9.1000000000E-05,-4.250000E-01
+9.2000000000E-05,-5.916667E-01
+9.3000000000E-05,-7.416667E-01
+9.4000000000E-05,-8.750000E-01
+9.5000000000E-05,-1.008333E+00
+9.6000000000E-05,-1.108333E+00
+9.7000000000E-05,-1.191667E+00
+9.8000000000E-05,-1.225000E+00
+9.9000000000E-05,-1.258333E+00
+1.0000000000E-04,-1.258333E+00
+1.0100000000E-04,-1.208333E+00
+1.0200000000E-04,-1.141667E+00
+1.0300000000E-04,-1.041667E+00
+1.0400000000E-04,-9.250000E-01
+1.0500000000E-04,-7.750000E-01
+1.0600000000E-04,-6.083333E-01
+1.0700000000E-04,-4.083334E-01
+1.0800000000E-04,-2.083333E-01
+1.0900000000E-04,+8.333333E-03
+1.1000000000E-04,+2.083333E-01
+1.1100000000E-04,+4.250000E-01
+1.1200000000E-04,+6.250001E-01
+1.1300000000E-04,+7.916667E-01
+1.1400000000E-04,+9.583334E-01
+1.1500000000E-04,+1.091667E+00
+1.1600000000E-04,+1.175000E+00
+1.1700000000E-04,+1.225000E+00
+1.1800000000E-04,+1.241667E+00
+1.1900000000E-04,+1.225000E+00
+1.2000000000E-04,+1.141667E+00
+1.2100000000E-04,+1.025000E+00
+1.2200000000E-04,+8.750001E-01
+1.2300000000E-04,+6.916667E-01
+1.2400000000E-04,+4.750000E-01
+1.2500000000E-04,+2.416667E-01
+1.2600000000E-04,-8.333337E-03
+1.2700000000E-04,-2.416667E-01
+1.2800000000E-04,-4.750001E-01
+1.2900000000E-04,-7.083334E-01
+1.3000000000E-04,-9.083334E-01
+1.3100000000E-04,-1.058333E+00
+1.3200000000E-04,-1.175000E+00
+1.3300000000E-04,-1.241667E+00
+1.3400000000E-04,-1.258333E+00
+1.3500000000E-04,-1.225000E+00
+1.3600000000E-04,-1.125000E+00
+1.3700000000E-04,-9.750001E-01
+1.3800000000E-04,-7.750000E-01
+1.3900000000E-04,-5.583333E-01
+1.4000000000E-04,-2.916667E-01
+1.4100000000E-04,-2.500000E-02
+1.4200000000E-04,+2.583334E-01
+1.4300000000E-04,+5.250000E-01
+1.4400000000E-04,+7.583334E-01
+1.4500000000E-04,+9.750001E-01
+1.4600000000E-04,+1.125000E+00
+1.4700000000E-04,+1.208333E+00
+1.4800000000E-04,+1.241667E+00
+1.4900000000E-04,+1.208333E+00
+1.5000000000E-04,+1.108333E+00
+1.5100000000E-04,+9.416667E-01
+1.5200000000E-04,+7.250001E-01
+1.5300000000E-04,+4.583333E-01
+1.5400000000E-04,+1.750000E-01
+1.5500000000E-04,-1.250000E-01
+1.5600000000E-04,-4.250000E-01
+1.5700000000E-04,-7.083334E-01
+1.5800000000E-04,-9.416667E-01
+1.5900000000E-04,-1.108333E+00
+1.6000000000E-04,-1.225000E+00
+1.6100000000E-04,-1.258333E+00
+1.6200000000E-04,-1.225000E+00
+1.6300000000E-04,-1.091667E+00
+1.6400000000E-04,-9.083334E-01
+1.6500000000E-04,-6.583334E-01
+1.6600000000E-04,-3.583334E-01
+1.6700000000E-04,-2.500000E-02
+1.6800000000E-04,+2.916667E-01
+1.6900000000E-04,+6.083334E-01
+1.7000000000E-04,+8.750001E-01
+1.7100000000E-04,+1.058333E+00
+1.7200000000E-04,+1.191667E+00
+1.7300000000E-04,+1.241667E+00
+1.7400000000E-04,+1.191667E+00
+1.7500000000E-04,+1.058333E+00
+1.7600000000E-04,+8.416668E-01
+1.7700000000E-04,+5.583334E-01
+1.7800000000E-04,+2.250000E-01
+1.7900000000E-04,-1.250000E-01
+1.8000000000E-04,-4.750001E-01
+1.8100000000E-04,-7.750000E-01
+1.8200000000E-04,-1.025000E+00
+1.8300000000E-04,-1.191667E+00
+1.8400000000E-04,-1.258333E+00
+1.8500000000E-04,-1.225000E+00
+1.8600000000E-04,-1.091667E+00
+1.8700000000E-04,-8.750000E-01
+1.8800000000E-04,-5.583333E-01
+1.8900000000E-04,-2.083333E-01
+1.9000000000E-04,+1.583333E-01
+1.9100000000E-04,+5.083334E-01
+1.9200000000E-04,+8.250000E-01
+1.9300000000E-04,+1.075000E+00
+1.9400000000E-04,+1.225000E+00
+1.9500000000E-04,+1.241667E+00
+1.9600000000E-04,+1.158333E+00
+1.9700000000E-04,+9.583334E-01
+1.9800000000E-04,+6.750001E-01
+1.9900000000E-04,+3.250000E-01
+2.0000000000E-04,-7.500000E-02
+2.0100000000E-04,-4.583333E-01
+2.0200000000E-04,-7.916667E-01
+2.0300000000E-04,-1.058333E+00
+2.0400000000E-04,-1.225000E+00
+2.0500000000E-04,-1.241667E+00
+2.0600000000E-04,-1.158333E+00
+2.0700000000E-04,-9.583333E-01
+2.0800000000E-04,-6.416667E-01
+2.0900000000E-04,-2.583334E-01
+2.1000000000E-04,+1.416667E-01
+2.1100000000E-04,+5.416667E-01
+2.1200000000E-04,+8.750001E-01
+2.1300000000E-04,+1.125000E+00
+2.1400000000E-04,+1.241667E+00
+2.1500000000E-04,+1.208333E+00
+2.1600000000E-04,+1.058333E+00
+2.1700000000E-04,+7.750000E-01
+2.1800000000E-04,+4.083333E-01
+2.1900000000E-04,-8.333337E-03
+2.2000000000E-04,-4.416667E-01
+2.2100000000E-04,-8.083333E-01
+2.2200000000E-04,-1.091667E+00
+2.2300000000E-04,-1.241667E+00
+2.2400000000E-04,-1.241667E+00
+2.2500000000E-04,-1.091667E+00
+2.2600000000E-04,-8.083333E-01
+2.2700000000E-04,-4.250000E-01
+2.2800000000E-04,+2.500000E-02
+2.2900000000E-04,+4.583333E-01
+2.3000000000E-04,+8.250000E-01
+2.3100000000E-04,+1.108333E+00
+2.3200000000E-04,+1.225000E+00
+2.3300000000E-04,+1.208333E+00
+2.3400000000E-04,+1.008333E+00
+2.3500000000E-04,+6.750001E-01
+2.3600000000E-04,+2.583334E-01
+2.3700000000E-04,-1.916667E-01
+2.3800000000E-04,-6.416667E-01
+2.3900000000E-04,-9.916667E-01
+2.4000000000E-04,-1.208333E+00
+2.4100000000E-04,-1.241667E+00
+2.4200000000E-04,-1.125000E+00
+2.4300000000E-04,-8.250000E-01
+2.4400000000E-04,-4.250000E-01
+2.4500000000E-04,+4.166667E-02
+2.4600000000E-04,+5.083334E-01
+2.4700000000E-04,+9.083334E-01
+2.4800000000E-04,+1.175000E+00
+2.4900000000E-04,+1.241667E+00
+2.5000000000E-04,+1.141667E+00
+2.5100000000E-04,+8.583334E-01
+2.5200000000E-04,+4.416667E-01
+2.5300000000E-04,-4.166667E-02
+2.5400000000E-04,-5.250000E-01
+2.5500000000E-04,-9.250000E-01
+2.5600000000E-04,-1.191667E+00
+2.5700000000E-04,-1.258333E+00
+2.5800000000E-04,-1.141667E+00
+2.5900000000E-04,-8.250000E-01
+2.6000000000E-04,-3.750000E-01
+2.6100000000E-04,+1.250000E-01
+2.6200000000E-04,+6.250001E-01
+2.6300000000E-04,+9.916667E-01
+2.6400000000E-04,+1.208333E+00
+2.6500000000E-04,+1.225000E+00
+2.6600000000E-04,+1.025000E+00
+2.6700000000E-04,+6.416667E-01
+2.6800000000E-04,+1.583333E-01
+2.6900000000E-04,-3.750000E-01
+2.7000000000E-04,-8.250000E-01
+2.7100000000E-04,-1.141667E+00
+2.7200000000E-04,-1.258333E+00
+2.7300000000E-04,-1.141667E+00
+2.7400000000E-04,-8.250000E-01
+2.7500000000E-04,-3.583334E-01
+2.7600000000E-04,+1.750000E-01
+2.7700000000E-04,+6.750001E-01
+2.7800000000E-04,+1.058333E+00
+2.7900000000E-04,+1.225000E+00
+2.8000000000E-04,+1.191667E+00
+2.8100000000E-04,+9.083334E-01
+2.8200000000E-04,+4.583333E-01
+2.8300000000E-04,-9.166667E-02
+2.8400000000E-04,-6.250000E-01
+2.8500000000E-04,-1.041667E+00
+2.8600000000E-04,-1.241667E+00
+2.8700000000E-04,-1.208333E+00
+2.8800000000E-04,-9.083334E-01
+2.8900000000E-04,-4.750001E-01
+2.9000000000E-04,+9.166667E-02
+2.9100000000E-04,+6.250001E-01
+2.9200000000E-04,+1.041667E+00
+2.9300000000E-04,+1.241667E+00
+2.9400000000E-04,+1.175000E+00
+2.9500000000E-04,+8.583334E-01
+2.9600000000E-04,+3.750000E-01
+2.9700000000E-04,-2.083333E-01
+2.9800000000E-04,-7.416667E-01
+2.9900000000E-04,-1.125000E+00
+3.0000000000E-04,-1.258333E+00
+3.0100000000E-04,-1.125000E+00
+3.0200000000E-04,-7.416667E-01
+3.0300000000E-04,-2.083333E-01
+3.0400000000E-04,+3.916667E-01
+3.0500000000E-04,+8.916667E-01
+3.0600000000E-04,+1.191667E+00
+3.0700000000E-04,+1.225000E+00
+3.0800000000E-04,+9.750001E-01
+3.0900000000E-04,+5.083334E-01
+3.1000000000E-04,-9.166667E-02
+3.1100000000E-04,-6.583334E-01
+3.1200000000E-04,-1.091667E+00
+3.1300000000E-04,-1.258333E+00
+3.1400000000E-04,-1.125000E+00
+3.1500000000E-04,-7.416667E-01
+3.1600000000E-04,-1.750000E-01
+3.1700000000E-04,+4.416667E-01
+3.1800000000E-04,+9.583334E-01
+3.1900000000E-04,+1.225000E+00
+3.2000000000E-04,+1.191667E+00
+3.2100000000E-04,+8.750001E-01
+3.2200000000E-04,+3.250000E-01
+3.2300000000E-04,-3.083334E-01
+3.2400000000E-04,-8.583333E-01
+3.2500000000E-04,-1.191667E+00
+3.2600000000E-04,-1.241667E+00
+3.2700000000E-04,-9.583333E-01
+3.2800000000E-04,-4.416667E-01
+3.2900000000E-04,+1.916667E-01
+3.3000000000E-04,+7.750000E-01
+3.3100000000E-04,+1.158333E+00
+3.3200000000E-04,+1.241667E+00
+3.3300000000E-04,+9.750001E-01
+3.3400000000E-04,+4.583333E-01
+3.3500000000E-04,-1.916667E-01
+3.3600000000E-04,-7.916667E-01
+3.3700000000E-04,-1.175000E+00
+3.3800000000E-04,-1.241667E+00
+3.3900000000E-04,-9.750001E-01
+3.4000000000E-04,-4.250000E-01
+3.4100000000E-04,+2.416667E-01
+3.4200000000E-04,+8.250000E-01
+3.4300000000E-04,+1.191667E+00
+3.4400000000E-04,+1.208333E+00
+3.4500000000E-04,+8.916667E-01
+3.4600000000E-04,+3.083333E-01
+3.4700000000E-04,-3.583334E-01
+3.4800000000E-04,-9.250000E-01
+3.4900000000E-04,-1.241667E+00
+3.5000000000E-04,-1.175000E+00
+3.5100000000E-04,-7.750000E-01
+3.5200000000E-04,-1.416667E-01
+3.5300000000E-04,+5.250000E-01
+3.5400000000E-04,+1.041667E+00
+3.5500000000E-04,+1.241667E+00
+3.5600000000E-04,+1.075000E+00
+3.5700000000E-04,+5.583334E-01
+3.5800000000E-04,-1.250000E-01
+3.5900000000E-04,-7.750000E-01
+3.6000000000E-04,-1.175000E+00
+3.6100000000E-04,-1.241667E+00
+3.6200000000E-04,-8.916667E-01
+3.6300000000E-04,-2.916667E-01
+3.6400000000E-04,+4.083333E-01
+3.6500000000E-04,+9.916667E-01
+3.6600000000E-04,+1.225000E+00
+3.6700000000E-04,+1.091667E+00
+3.6800000000E-04,+5.916667E-01
+3.6900000000E-04,-1.083333E-01
+3.7000000000E-04,-7.750000E-01
+3.7100000000E-04,-1.191667E+00
+3.7200000000E-04,-1.225000E+00
+3.7300000000E-04,-8.416667E-01
+3.7400000000E-04,-1.916667E-01
+3.7500000000E-04,+5.416667E-01
+3.7600000000E-04,+1.075000E+00
+3.7700000000E-04,+1.241667E+00
+3.7800000000E-04,+9.916667E-01
+3.7900000000E-04,+4.083333E-01
+3.8000000000E-04,-3.416667E-01
+3.8100000000E-04,-9.583333E-01
+3.8200000000E-04,-1.258333E+00
+3.8300000000E-04,-1.108333E+00
+3.8400000000E-04,-5.916667E-01
+3.8500000000E-04,+1.416667E-01
+3.8600000000E-04,+8.250000E-01
+3.8700000000E-04,+1.208333E+00
+3.8800000000E-04,+1.175000E+00
+3.8900000000E-04,+6.916667E-01
+3.9000000000E-04,-2.500000E-02
+3.9100000000E-04,-7.416667E-01
+3.9200000000E-04,-1.191667E+00
+3.9300000000E-04,-1.208333E+00
+3.9400000000E-04,-7.750000E-01
+3.9500000000E-04,-5.833334E-02
+3.9600000000E-04,+6.750001E-01
+3.9700000000E-04,+1.158333E+00
+3.9800000000E-04,+1.208333E+00
+3.9900000000E-04,+7.916667E-01
+4.0000000000E-04,+7.500000E-02
+4.0100000000E-04,-6.750000E-01
+4.0200000000E-04,-1.175000E+00
+4.0300000000E-04,-1.225000E+00
+4.0400000000E-04,-7.916667E-01
+4.0500000000E-04,-5.833334E-02
+4.0600000000E-04,+6.916667E-01
+4.0700000000E-04,+1.175000E+00
+4.0800000000E-04,+1.191667E+00
+4.0900000000E-04,+7.416667E-01
+4.1000000000E-04,-8.333337E-03
+4.1100000000E-04,-7.583334E-01
+4.1200000000E-04,-1.225000E+00
+4.1300000000E-04,-1.175000E+00
+4.1400000000E-04,-6.583334E-01
+4.1500000000E-04,+1.250000E-01
+4.1600000000E-04,+8.583334E-01
+4.1700000000E-04,+1.225000E+00
+4.1800000000E-04,+1.108333E+00
+4.1900000000E-04,+5.083334E-01
+4.2000000000E-04,-3.083334E-01
+4.2100000000E-04,-9.750001E-01
+4.2200000000E-04,-1.258333E+00
+4.2300000000E-04,-1.008333E+00
+4.2400000000E-04,-3.250000E-01
+4.2500000000E-04,+4.916667E-01
+4.2600000000E-04,+1.091667E+00
+4.2700000000E-04,+1.225000E+00
+4.2800000000E-04,+8.083334E-01
+4.2900000000E-04,+5.833334E-02
+4.3000000000E-04,-7.416667E-01
+4.3100000000E-04,-1.225000E+00
+4.3200000000E-04,-1.158333E+00
+4.3300000000E-04,-5.916667E-01
+4.3400000000E-04,+2.416667E-01
+4.3500000000E-04,+9.583334E-01
+4.3600000000E-04,+1.258333E+00
+4.3700000000E-04,+9.583334E-01
+4.3800000000E-04,+2.583334E-01
+4.3900000000E-04,-5.916667E-01
+4.4000000000E-04,-1.158333E+00
+4.4100000000E-04,-1.208333E+00
+4.4200000000E-04,-7.083334E-01
+4.4300000000E-04,+1.250000E-01
+4.4400000000E-04,+8.916667E-01
+4.4500000000E-04,+1.241667E+00
+4.4600000000E-04,+1.008333E+00
+4.4700000000E-04,+2.916667E-01
+4.4800000000E-04,-5.583333E-01
+4.4900000000E-04,-1.158333E+00
+4.5000000000E-04,-1.208333E+00
+4.5100000000E-04,-6.750000E-01
+4.5200000000E-04,+1.750000E-01
+4.5300000000E-04,+9.416667E-01
+4.5400000000E-04,+1.241667E+00
+4.5500000000E-04,+9.583334E-01
+4.5600000000E-04,+1.916667E-01
+4.5700000000E-04,-6.750000E-01
+4.5800000000E-04,-1.208333E+00
+4.5900000000E-04,-1.141667E+00
+4.6000000000E-04,-5.250000E-01
+4.6100000000E-04,+3.750000E-01
+4.6200000000E-04,+1.075000E+00
+4.6300000000E-04,+1.225000E+00
+4.6400000000E-04,+7.583334E-01
+4.6500000000E-04,-9.166667E-02
+4.6600000000E-04,-9.083334E-01
+4.6700000000E-04,-1.258333E+00
+4.6800000000E-04,-9.750001E-01
+4.6900000000E-04,-1.750000E-01
+4.7000000000E-04,+7.083334E-01
+4.7100000000E-04,+1.208333E+00
+4.7200000000E-04,+1.091667E+00
+4.7300000000E-04,+3.916667E-01
+4.7400000000E-04,-5.250000E-01
+4.7500000000E-04,-1.158333E+00
+4.7600000000E-04,-1.191667E+00
+4.7700000000E-04,-5.916667E-01
+4.7800000000E-04,+3.250000E-01
+4.7900000000E-04,+1.058333E+00
+4.8000000000E-04,+1.225000E+00
+4.8100000000E-04,+7.250001E-01
+4.8200000000E-04,-1.750000E-01
+4.8300000000E-04,-9.916667E-01
+4.8400000000E-04,-1.258333E+00
+4.8500000000E-04,-8.416667E-01
+4.8600000000E-04,+4.166667E-02
+4.8700000000E-04,+8.916667E-01
+4.8800000000E-04,+1.258333E+00
+4.8900000000E-04,+8.916667E-01
+4.9000000000E-04,+4.166667E-02
+4.9100000000E-04,-8.416667E-01
+4.9200000000E-04,-1.258333E+00
+4.9300000000E-04,-9.583333E-01
+4.9400000000E-04,-1.250000E-01
+4.9500000000E-04,+7.916667E-01
+4.9600000000E-04,+1.241667E+00
+4.9700000000E-04,+9.750001E-01
+4.9800000000E-04,+1.416667E-01
+4.9900000000E-04,-7.750000E-01
+5.0000000000E-04,-1.241667E+00
+5.0100000000E-04,-9.916667E-01
+5.0200000000E-04,-1.583333E-01
+5.0300000000E-04,+7.750000E-01
+5.0400000000E-04,+1.241667E+00
+5.0500000000E-04,+9.750001E-01
+5.0600000000E-04,+1.250000E-01
+5.0700000000E-04,-8.083333E-01
+5.0800000000E-04,-1.258333E+00
+5.0900000000E-04,-9.583333E-01
+5.1000000000E-04,-5.833334E-02
+5.1100000000E-04,+8.583334E-01
+5.1200000000E-04,+1.258333E+00
+5.1300000000E-04,+8.750001E-01
+5.1400000000E-04,-2.500000E-02
+5.1500000000E-04,-9.416667E-01
+5.1600000000E-04,-1.258333E+00
+5.1700000000E-04,-8.083333E-01
+5.1800000000E-04,+1.416667E-01
+5.1900000000E-04,+1.008333E+00
+5.2000000000E-04,+1.225000E+00
+5.2100000000E-04,+6.750001E-01
+5.2200000000E-04,-3.083334E-01
+5.2300000000E-04,-1.091667E+00
+5.2400000000E-04,-1.208333E+00
+5.2500000000E-04,-5.416667E-01
+5.2600000000E-04,+4.750000E-01
+5.2700000000E-04,+1.175000E+00
+5.2800000000E-04,+1.125000E+00
+5.2900000000E-04,+3.250000E-01
+5.3000000000E-04,-6.916667E-01
+5.3100000000E-04,-1.241667E+00
+5.3200000000E-04,-9.916667E-01
+5.3300000000E-04,-9.166667E-02
+5.3400000000E-04,+8.583334E-01
+5.3500000000E-04,+1.241667E+00
+5.3600000000E-04,+8.083334E-01
+5.3700000000E-04,-1.916667E-01
+5.3800000000E-04,-1.058333E+00
+5.3900000000E-04,-1.225000E+00
+5.4000000000E-04,-5.750000E-01
+5.4100000000E-04,+4.583333E-01
+5.4200000000E-04,+1.191667E+00
+5.4300000000E-04,+1.091667E+00
+5.4400000000E-04,+2.416667E-01
+5.4500000000E-04,-7.750000E-01
+5.4600000000E-04,-1.258333E+00
+5.4700000000E-04,-8.750000E-01
+5.4800000000E-04,+1.083333E-01
+5.4900000000E-04,+1.008333E+00
+5.5000000000E-04,+1.225000E+00
+5.5100000000E-04,+5.583334E-01
+5.5200000000E-04,-4.916667E-01
+5.5300000000E-04,-1.208333E+00
+5.5400000000E-04,-1.058333E+00
+5.5500000000E-04,-1.750000E-01
+5.5600000000E-04,+8.250000E-01
+5.5700000000E-04,+1.258333E+00
+5.5800000000E-04,+7.583334E-01
+5.5900000000E-04,-2.750000E-01
+5.6000000000E-04,-1.125000E+00
+5.6100000000E-04,-1.158333E+00
+5.6200000000E-04,-3.583334E-01
+5.6300000000E-04,+7.083334E-01
+5.6400000000E-04,+1.241667E+00
+5.6500000000E-04,+8.750001E-01
+5.6600000000E-04,-1.583333E-01
+5.6700000000E-04,-1.075000E+00
+5.6800000000E-04,-1.208333E+00
+5.6900000000E-04,-4.416667E-01
+5.7000000000E-04,+6.416667E-01
+5.7100000000E-04,+1.241667E+00
+5.7200000000E-04,+8.916667E-01
+5.7300000000E-04,-1.250000E-01
+5.7400000000E-04,-1.058333E+00
+5.7500000000E-04,-1.191667E+00
+5.7600000000E-04,-4.250000E-01
+5.7700000000E-04,+6.583334E-01
+5.7800000000E-04,+1.258333E+00
+5.7900000000E-04,+8.583334E-01
+5.8000000000E-04,-1.916667E-01
+5.8100000000E-04,-1.091667E+00
+5.8200000000E-04,-1.158333E+00
+5.8300000000E-04,-3.250000E-01
+5.8400000000E-04,+7.583334E-01
+5.8500000000E-04,+1.241667E+00
+5.8600000000E-04,+7.583334E-01
+5.8700000000E-04,-3.416667E-01
+5.8800000000E-04,-1.175000E+00
+5.8900000000E-04,-1.075000E+00
+5.9000000000E-04,-1.416667E-01
+5.9100000000E-04,+9.250001E-01
+5.9200000000E-04,+1.225000E+00
+5.9300000000E-04,+5.416667E-01
+5.9400000000E-04,-5.916667E-01
+5.9500000000E-04,-1.241667E+00
+5.9600000000E-04,-9.083334E-01
+5.9700000000E-04,+1.750000E-01
+5.9800000000E-04,+1.108333E+00
+5.9900000000E-04,+1.125000E+00
+6.0000000000E-04,+2.250000E-01
+6.0100000000E-04,-8.750000E-01
+6.0200000000E-04,-1.241667E+00
+6.0300000000E-04,-5.916667E-01
+6.0400000000E-04,+5.583334E-01
+6.0500000000E-04,+1.225000E+00
+6.0600000000E-04,+8.916667E-01
+6.0700000000E-04,-2.083333E-01
+6.0800000000E-04,-1.141667E+00
+6.0900000000E-04,-1.108333E+00
+6.1000000000E-04,-1.416667E-01
+6.1100000000E-04,+9.416667E-01
+6.1200000000E-04,+1.225000E+00
+6.1300000000E-04,+4.583333E-01
+6.1400000000E-04,-7.083334E-01
+6.1500000000E-04,-1.258333E+00
